######### Authors #############

1. Francisco Rosales Garcia
frosal@fi.upm.es

2. Jahidul Hamid
http://github.com/neurobin

################################

*** Also see:
https://github.com/existz/shc-3.8.9
https://github.com/madscientist42/shc
